<?xml version="1.0" encoding="UTF-8" standalone="no"?>
<!-- Created with Inkscape (http://www.inkscape.org/) -->

<svg
   xmlns:dc="http://purl.org/dc/elements/1.1/"
   xmlns:cc="http://creativecommons.org/ns#"
   xmlns:rdf="http://www.w3.org/1999/02/22-rdf-syntax-ns#"
   xmlns:svg="http://www.w3.org/2000/svg"
   xmlns="http://www.w3.org/2000/svg"
   xmlns:sodipodi="http://sodipodi.sourceforge.net/DTD/sodipodi-0.dtd"
   xmlns:inkscape="http://www.inkscape.org/namespaces/inkscape"
   width="210mm"
   height="297mm"
   id="svg2"
   version="1.1"
   inkscape:version="0.48.4 r9939"
   sodipodi:docname="schema.svg"
   inkscape:export-filename="/home/vins/Projects/imprimante3d/reconstruction/documentation/slides/img_printing/schema.png"
   inkscape:export-xdpi="96"
   inkscape:export-ydpi="96">
  <defs
     id="defs4">
    <marker
       inkscape:stockid="Arrow1Lend"
       orient="auto"
       refY="0.0"
       refX="0.0"
       id="Arrow1Lend"
       style="overflow:visible;">
      <path
         id="path3976"
         d="M 0.0,0.0 L 5.0,-5.0 L -12.5,0.0 L 5.0,5.0 L 0.0,0.0 z "
         style="fill-rule:evenodd;stroke:#000000;stroke-width:1.0pt;"
         transform="scale(0.8) rotate(180) translate(12.5,0)" />
    </marker>
  </defs>
  <sodipodi:namedview
     id="base"
     pagecolor="#ffffff"
     bordercolor="#666666"
     borderopacity="1.0"
     inkscape:pageopacity="0.0"
     inkscape:pageshadow="2"
     inkscape:zoom="1"
     inkscape:cx="395.75818"
     inkscape:cy="837.04061"
     inkscape:document-units="px"
     inkscape:current-layer="layer1"
     showgrid="false"
     inkscape:window-width="1364"
     inkscape:window-height="747"
     inkscape:window-x="0"
     inkscape:window-y="19"
     inkscape:window-maximized="1" />
  <metadata
     id="metadata7">
    <rdf:RDF>
      <cc:Work
         rdf:about="">
        <dc:format>image/svg+xml</dc:format>
        <dc:type
           rdf:resource="http://purl.org/dc/dcmitype/StillImage" />
        <dc:title></dc:title>
      </cc:Work>
    </rdf:RDF>
  </metadata>
  <g
     inkscape:label="Calque 1"
     inkscape:groupmode="layer"
     id="layer1">
    <rect
       style="fill:#002fff;fill-opacity:0.75581396;stroke:#000000;stroke-width:1;stroke-linecap:butt;stroke-linejoin:round;stroke-miterlimit:4;stroke-opacity:1;stroke-dasharray:none;stroke-dashoffset:0"
       id="rect2985"
       width="140"
       height="70"
       x="42"
       y="83.362183"
       ry="9.0290937" />
    <rect
       ry="9.0290937"
       y="83.362183"
       x="248"
       height="70"
       width="177"
       id="rect3755"
       style="fill:#002fff;fill-opacity:0.75581396;stroke:#000000;stroke-width:1;stroke-linecap:butt;stroke-linejoin:round;stroke-miterlimit:4;stroke-opacity:1;stroke-dasharray:none;stroke-dashoffset:0" />
    <rect
       style="fill:#002fff;fill-opacity:0.75581396;stroke:#000000;stroke-width:1;stroke-linecap:butt;stroke-linejoin:round;stroke-miterlimit:4;stroke-opacity:1;stroke-dasharray:none;stroke-dashoffset:0"
       id="rect3757"
       width="140"
       height="70"
       x="528"
       y="83.362183"
       ry="9.0290937" />
    <rect
       ry="9.0290937"
       y="227.36218"
       x="528"
       height="70"
       width="140"
       id="rect3759"
       style="fill:#00c800;fill-opacity:0.75581396;stroke:#000000;stroke-width:1;stroke-linecap:butt;stroke-linejoin:round;stroke-miterlimit:4;stroke-opacity:1;stroke-dasharray:none;stroke-dashoffset:0" />
    <text
       xml:space="preserve"
       style="font-size:12px;font-style:normal;font-weight:normal;line-height:125%;letter-spacing:0px;word-spacing:0px;fill:#000000;fill-opacity:1;stroke:none;font-family:Sans"
       x="110.06055"
       y="112.36218"
       id="text3761"
       sodipodi:linespacing="125%"><tspan
         sodipodi:role="line"
         id="tspan3763"
         x="110.06055"
         y="112.36218"
         style="font-size:18px;text-align:center;text-anchor:middle">3D Modeler</tspan><tspan
         sodipodi:role="line"
         x="110.06055"
         y="134.86218"
         id="tspan3765"
         style="font-size:18px;text-align:center;text-anchor:middle">(Blender)</tspan></text>
    <text
       xml:space="preserve"
       style="font-size:18px;font-style:normal;font-weight:normal;line-height:125%;letter-spacing:0px;word-spacing:0px;fill:#000000;fill-opacity:1;stroke:none;font-family:Sans"
       x="337.51123"
       y="103.36218"
       id="text3767"
       sodipodi:linespacing="125%"><tspan
         sodipodi:role="line"
         id="tspan3769"
         x="337.51123"
         y="103.36218"
         style="font-size:17px;text-align:center;text-anchor:middle">Slicer and</tspan><tspan
         sodipodi:role="line"
         x="337.51123"
         y="124.61218"
         id="tspan3771"
         style="font-size:17px;text-align:center;text-anchor:middle">Gcode generator</tspan><tspan
         sodipodi:role="line"
         x="337.51123"
         y="145.86218"
         id="tspan3773"
         style="font-size:17px;text-align:center;text-anchor:middle">(Slic3r)</tspan></text>
    <text
       xml:space="preserve"
       style="font-size:18px;font-style:normal;font-weight:normal;line-height:125%;letter-spacing:0px;word-spacing:0px;fill:#000000;fill-opacity:1;stroke:none;font-family:Sans"
       x="598.54395"
       y="110.36218"
       id="text3775"
       sodipodi:linespacing="125%"><tspan
         sodipodi:role="line"
         id="tspan3777"
         x="598.54395"
         y="110.36218"
         style="text-align:center;text-anchor:middle">Printer driver</tspan><tspan
         sodipodi:role="line"
         x="598.54395"
         y="132.86218"
         id="tspan3779"
         style="text-align:center;text-anchor:middle">(printrun)</tspan></text>
    <text
       xml:space="preserve"
       style="font-size:18px;font-style:normal;font-weight:normal;text-align:center;line-height:125%;letter-spacing:0px;word-spacing:0px;text-anchor:middle;fill:#000000;fill-opacity:1;stroke:none;font-family:Sans"
       x="601.03857"
       y="254.36218"
       id="text3781"
       sodipodi:linespacing="125%"><tspan
         sodipodi:role="line"
         id="tspan3783"
         x="601.03857"
         y="254.36218">Printer</tspan><tspan
         sodipodi:role="line"
         x="601.03857"
         y="276.86218"
         id="tspan3785">(Ultimaker)</tspan></text>
    <path
       style="fill:none;stroke:#000000;stroke-width:1px;stroke-linecap:butt;stroke-linejoin:miter;stroke-opacity:1;marker-start:none;marker-end:url(#Arrow1Lend)"
       d="m 185,116.36218 60,0"
       id="path3787"
       inkscape:connector-curvature="0"
       sodipodi:nodetypes="cc" />
    <text
       xml:space="preserve"
       style="font-size:14px;font-style:normal;font-weight:normal;line-height:125%;letter-spacing:0px;word-spacing:0px;fill:#000000;fill-opacity:1;stroke:none;font-family:Sans"
       x="193"
       y="104.36218"
       id="text4413"
       sodipodi:linespacing="125%"><tspan
         sodipodi:role="line"
         id="tspan4415"
         x="193"
         y="104.36218">Mesh</tspan><tspan
         sodipodi:role="line"
         x="193"
         y="121.86218"
         id="tspan4417" /><tspan
         sodipodi:role="line"
         x="193"
         y="139.36218"
         id="tspan4419">(STL)</tspan></text>
    <text
       xml:space="preserve"
       style="font-size:14px;font-style:normal;font-weight:normal;line-height:125%;letter-spacing:0px;word-spacing:0px;fill:#000000;fill-opacity:1;stroke:none;font-family:Sans;text-anchor:middle;text-align:center"
       x="474.20557"
       y="100.36218"
       id="text4440"
       sodipodi:linespacing="125%"><tspan
         sodipodi:role="line"
         id="tspan4442"
         x="434"
         y="100.36218">Instructions</tspan><tspan
         sodipodi:role="line"
         x="434"
         y="117.86218"
         id="tspan4444" /><tspan
         sodipodi:role="line"
         x="434"
         y="135.36218"
         id="tspan4446">(Gcode)</tspan></text>
    <text
       xml:space="preserve"
       style="font-size:14px;font-style:normal;font-weight:normal;line-height:125%;letter-spacing:0px;word-spacing:0px;fill:#000000;fill-opacity:1;stroke:none;font-family:Sans"
       x="601"
       y="191.36218"
       id="text4448"
       sodipodi:linespacing="125%"><tspan
         sodipodi:role="line"
         id="tspan4450"
         x="601"
         y="191.36218">Instructions</tspan></text>
    <path
       style="fill:none;stroke:#000000;stroke-width:1px;stroke-linecap:butt;stroke-linejoin:miter;stroke-opacity:1;marker-end:url(#Arrow1Lend)"
       d="m 427,116.36218 97,0"
       id="path4452"
       inkscape:connector-curvature="0" />
    <path
       style="fill:none;stroke:#000000;stroke-width:1px;stroke-linecap:butt;stroke-linejoin:miter;stroke-opacity:1;marker-end:url(#Arrow1Lend)"
       d="m 585,157.36218 0,63"
       id="path4636"
       inkscape:connector-curvature="0" />
  </g>
</svg>
